Git, GitHub & Ocean Acidification
…
Question 7: Assume that you added the pics/ folder to your working directory to plot pictures of each fish on your figure. Do you want to track the files in the pic/ folder on GitHub despite them being .png files? Explain your reasoning.

## I  want to trank the files, because this is the result of the code running, on the one hand, if I change my code but the output images don't change, this can cause misunderstandings to people using my project, on the other hand, these images are the result of the code run and are part of our project, so even though they are .png files, I still keep track and uploading them

Task 6

This task involves teaming up with a collaborator. Exchange GitHub username details and add each other to your repo. Clone each others repo on to your computer. Re-run their code. Does it work? If not, correct it for them. Explain to them WHY it didnt work. After all, they are right beside you! Think carefully about this. Will it still run on their computer if you have corrected it in a certain way?

Now, lets create a new figure in the code block below that simplifies the one produced in Task 5. Instead of all species, lets just plot three of the species (chromis, lemon, and acantho). In the figure code chunk make sure you add the necessary arguments (e.g., fig.cap) so that you can refer to Figure ??.

# You want to make changes to your collaborators figure in Task 5. Maybe you want to create a figure that focuses only on three fish species instead of the 5. More specifically, chromis, lemon, and acantho. Add code here to revise their figure to do that.
task6 <- new_data  %>% filter(species %in% c("chromis", "lemon",  "acantho"))
task6

## # A tibble: 259 x 7
##       X1 species treatment animal_id    sl size  activity
##    <dbl> <chr>   <chr>         <dbl> <dbl> <chr>    <dbl>
##  1     5 lemon   CO2              74  36.4 big      36.7 
##  2     7 lemon   CO2              81  35.7 big      21.9 
##  3    18 chromis CO2             221  40.6 big      14.9 
##  4    19 chromis CO2             222  61.1 big      21.2 
##  5    20 acantho CO2             223  92.5 big       3.66
##  6    21 acantho CO2             224  52.4 big      28.9 
##  7    22 acantho CO2             225  68.8 big      10.8 
##  8    23 acantho CO2             226  63.3 big      14.1 
##  9    24 acantho CO2             231  71.4 big      12.0 
## 10    25 acantho CO2             232  78.3 big       8.07
## #  with 249 more rows
…
